Writing a Report With ratlas • ratlas
…
In this project, there is a data/ directory with raw data, an R/ directory where the analysis code lives, and an output/ directory, where the results from the analysis are saved. The report lives in the my-report.Rmd file. When writing the report, I will likely need to read in the results. One option is to use read_rds("/Users/jake/GIT/projects/simulation-study/output/all-output.rds"). However, we know that this will break on other machines. Instead, we can use read_rds(here("output", "all-output.rds")). This will look for the .Rproj file, and from there, look for an output directory with an all-output.rds file. This way, when another collaborator downloads the project, the file paths will “just work.” For more information on file paths and why the {here} package is important, see this blog post from Jenny Bryan.

In-Line Output

If at all possible, you should avoid the hard coding of numbers. For example, let’s say we have some data on cars and estimate the following model:

my_data
#> # A tibble: 32 × 3
#>      mpg  disp   cyl
#>    <dbl> <dbl> <dbl>
#>  1  21    160      6
#>  2  21    160      6
#>  3  22.8  108      4
#>  4  21.4  258      6
#>  5  18.7  360      8
#>  6  18.1  225      6
#>  7  14.3  360      8
#>  8  24.4  147.     4
#>  9  22.8  141.     4
#> 10  19.2  168.     6
#> # ℹ 22 more rows

lm_mod <- lm(mpg ~ disp + cyl, data = my_data)
coef(lm_mod)
#> (Intercept)        disp         cyl 
#> 34.66099474 -0.02058363 -1.58727681

When reporting the coefficient for cyl we might say, “Keeping displacement constant, an additional cylinder is associated with a loss of about 1.6 miles-per-gallon.” But now let’s say that the data file gets updated:

my_new_data
#> # A tibble: 48 × 3
#>      mpg  disp   cyl
#>    <dbl> <dbl> <dbl>
#>  1  21     160     6
#>  2  18.1   225     6
#>  3  15     301     8
#>  4  15     301     8
#>  5  21.4   258     6
#>  6  10.4   460     8
#>  7  21     160     6
#>  8  22.8   108     4
#>  9  19.2   400     8
#> 10  15.5   318     8
#> # ℹ 38 more rows
…
